…
## Basic example: EGLV

### Get gauge locations and metadata

``` r
# fetch all available gauges
gauges <- get_eglv_gauges()
gauges
#> Simple feature collection with 122 features and 6 fields
#> Geometry type: POINT
#> Dimension:     XY
#> Bounding box:  xmin: 336929 ymin: 5701285 xmax: 433191 ymax: 5733623
#> Projected CRS: ETRS89 / UTM zone 32N
#> # A tibble: 122 × 7
#>    id    name             waterbody has_current_waterlevel has_current_discharge
#>    <chr> <chr>            <chr>     <lgl>                  <lgl>                
#>  1 10104 Econova Allee    Berne     TRUE                   TRUE                 
#>  2 10135 E Posener Straß… Borbecke… TRUE                   FALSE                
#>  3 11038 HRB Borbecker M… Borbecke… TRUE                   FALSE                
#>  4 12036 HRB Borbecker M… Borbecke… TRUE                   FALSE                
#>  5 10085 Nöggerathstraße  Borbecke… TRUE                   FALSE                
#>  6 10140 BOT Gungstraße,… Boye      TRUE                   FALSE                
#>  7 10141 Braukstraße, B2… Boye      TRUE                   FALSE                
#>  8 10139 GLA Brücke Welh… Boye      TRUE                   FALSE                
#>  9 22049 An den Höfen, H… Bruckhau… TRUE                   FALSE                
#> 10 21119 HÜN HRB Zur alt… Bruckhau… TRUE                   FALSE                
#> # ℹ 112 more rows
#> # ℹ 2 more variables: has_current_velocity <lgl>, geometry <POINT [m]>
…
